{
  "request": { "method": "GET", "path": "/termination-reasons", "query": { "page": "2" } },
  "response": {
    "status": 200,
    "body": {
      "data": [
        { "id": 3, "name": "Retirement", "code": "RET", "type": "voluntary" }
      ],
      "meta": { "current_page": 2, "next_page": null, "previous_page": 1, "total_pages": 2, "per_page": 2, "total_entries": 3 }
    }
  }
}
