{
  "request": {
    "method": "GET",
    "path": "/a/synthetic-conformance-value/calls.json",
    "query": {
      "page": "1",
      "per_page": "2"
    }
  },
  "response": {
    "status": 200,
    "body": {
      "page": 1,
      "per_page": 2,
      "total_pages": 2,
      "total_records": 3,
      "calls": [
        {
          "id": "CAL_fixture_1",
          "answered": true,
          "business_phone_number": "+15555550001",
          "customer_city": "Austin",
          "customer_country": "US",
          "customer_name": "Fixture Caller 1",
          "customer_phone_number": "+15550000001",
          "customer_state": "TX",
          "direction": "inbound",
          "duration": 30,
          "recording": null,
          "start_time": "2026-01-01T00:00:00Z",
          "tracking_phone_number": "+15555550000",
          "voicemail": false,
          "company_id": "CMP_fixture_1"
        },
        {
          "id": "CAL_fixture_2",
          "answered": true,
          "business_phone_number": "+15555550001",
          "customer_city": "Austin",
          "customer_country": "US",
          "customer_name": "Fixture Caller 2",
          "customer_phone_number": "+15550000002",
          "customer_state": "TX",
          "direction": "inbound",
          "duration": 60,
          "recording": null,
          "start_time": "2026-01-02T00:00:00Z",
          "tracking_phone_number": "+15555550000",
          "voicemail": false,
          "company_id": "CMP_fixture_1"
        }
      ]
    }
  }
}