{
  "request": {
    "method": "GET",
    "path": "/a/synthetic-conformance-value/calls.json",
    "query": {
      "page": "2",
      "per_page": "2"
    }
  },
  "response": {
    "status": 200,
    "body": {
      "page": 2,
      "per_page": 2,
      "total_pages": 2,
      "total_records": 3,
      "calls": [
        {
          "id": "CAL_fixture_3",
          "answered": false,
          "business_phone_number": "+15555550001",
          "customer_city": "Austin",
          "customer_country": "US",
          "customer_name": "Fixture Caller 3",
          "customer_phone_number": "+15550000003",
          "customer_state": "TX",
          "direction": "inbound",
          "duration": 15,
          "recording": null,
          "start_time": "2026-01-03T00:00:00Z",
          "tracking_phone_number": "+15555550000",
          "voicemail": true,
          "company_id": "CMP_fixture_1"
        }
      ]
    }
  }
}