{
  "request": { "method": "GET", "path": "/leave-management/reports/individual-allowances", "query": { "page": "2" } },
  "response": {
    "status": 200,
    "body": {
      "data": [
        { "id": 13, "full_name": "Fixture Sam", "eligibilities": [ { "policy": { "name": "Vacation", "id": 1 }, "quantity": "10.0", "unit": "days", "carryover": "0.0" } ] }
      ],
      "meta": { "current_page": 2, "next_page": null, "previous_page": 1, "total_pages": 2, "per_page": 2, "total_entries": 3 }
    }
  }
}
