{
  "request": {
    "method": "GET",
    "path": "/rest/v1/audiences",
    "query": {
      "page": "2",
      "perPage": "1000"
    }
  },
  "response": {
    "status": 200,
    "body": {
      "pagination": {
        "totalResults": 1001,
        "totalPages": 2,
        "page": 2,
        "perPage": 1000
      },
      "results": [
        {
          "id": "63f8c5361b9c80d3274b1001",
          "name": "Fixture Audience 1001",
          "reference": "audience1001",
          "apiControlled": false,
          "category": "team",
          "type": "manual",
          "parent": null,
          "createdAt": "2026-01-02T00:00:00.000Z",
          "updatedAt": "2026-01-02T00:00:00.000Z"
        }
      ]
    }
  }
}
