{
  "request": {
    "method": "GET",
    "path": "/records.json",
    "query": {
      "page": "2",
      "per_page": "100"
    }
  },
  "response": {
    "status": 200,
    "body": {
      "records": [
        {
          "id": "record_fixture_p2_1",
          "form_id": "form_fixture_1",
          "project_id": "project_fixture_1",
          "status": "active",
          "latitude": 46.0,
          "longitude": -123.0,
          "created_at": "2026-01-01T00:00:00Z",
          "updated_at": "2026-01-01T00:00:00Z",
          "created_by": "fixture-user",
          "updated_by": "fixture-user"
        }
      ],
      "total_count": 101,
      "current_page": 2,
      "total_pages": 2,
      "per_page": 100
    }
  }
}
