{
  "request": { "method": "GET", "path": "/recruitment/positions", "query": { "page": "2" } },
  "response": {
    "status": 200,
    "body": {
      "data": [
        { "id": 903, "title": "Fixture Engineer", "status": "published", "visibility": "Published", "created_at": "2026-01-03", "team": "Engineering", "applicants_required": 2, "applicants_count": 0, "employment_type": "Full-time", "location": "Remote", "location_id": 1, "group": "Hiring Group", "group_id": 1 }
      ],
      "meta": { "current_page": 2, "next_page": null, "previous_page": 1, "total_pages": 2, "per_page": 2, "total_entries": 3 }
    }
  }
}
