{
  "request": {
    "method": "GET",
    "path": "/v1/catalogs/products",
    "query": {
      "page": "2",
      "page_size": "20"
    }
  },
  "response": {
    "status": 200,
    "body": {
      "products": [
        {
          "id": "PROD-fixture-21",
          "name": "Fixture Product 21",
          "description": "fixture",
          "type": "SERVICE",
          "category": "SOFTWARE",
          "create_time": "2026-01-01T00:00:00Z"
        }
      ],
      "total_items": 21,
      "total_pages": 2
    }
  }
}
