{
  "request": { "method": "GET", "path": "/leave-management/requests", "query": { "page": "2" } },
  "response": {
    "status": 200,
    "body": {
      "data": [
        { "id": 3, "status": "Declined", "status_code": "declined", "policy_id": 1, "employee_id": 3, "start_date": "2026-01-20", "end_date": "2026-01-20", "request_date": "2026-01-15", "approval_date": "2026-01-16", "hours": 3.5 }
      ],
      "meta": { "current_page": 2, "next_page": null, "previous_page": 1, "total_pages": 2, "per_page": 2, "total_entries": 3 }
    }
  }
}
