{
  "request": {
    "method": "GET",
    "path": "/scraping-jobs",
    "query": {
      "page": "2"
    }
  },
  "response": {
    "status": 200,
    "body": {
      "success": true,
      "data": [
        {
          "id": 600,
          "custom_id": "custom-scraping-job-600",
          "sitemap_name": "Fixture Sitemap",
          "status": "finished",
          "sitemap_id": 7,
          "test_run": 0,
          "jobs_scheduled": 10,
          "jobs_executed": 10,
          "jobs_failed": 0,
          "jobs_empty": 0,
          "stored_record_count": 100,
          "request_interval": 2000,
          "page_load_delay": 2000,
          "driver": "fast",
          "scheduled": 0,
          "time_created": "1767225600"
        }
      ],
      "current_page": 2,
      "last_page": 2,
      "total": 101,
      "per_page": 100
    }
  }
}
