{
  "request": { "method": "GET", "path": "/teams" },
  "response": {
    "status": 200,
    "body": {
      "data": [
        { "id": 1, "name": "Fixture Team One", "manager_ids": [1], "employee_ids": [1, 2] },
        { "id": 2, "name": "Fixture Team Two", "manager_ids": [2], "employee_ids": [3] }
      ],
      "meta": { "current_page": 1, "next_page": 2, "previous_page": null, "total_pages": 2, "per_page": 2, "total_entries": 3 }
    }
  }
}
