{
  "request": {
    "method": "GET",
    "path": "/forms",
    "query": { "page": "2", "page_size": "200" }
  },
  "response": {
    "status": 200,
    "body": {
      "total_items": 201,
      "page_count": 2,
      "items": [
        {
          "id": "form_fixture_201",
          "title": "Fixture Form 201",
          "type": "quiz",
          "created_at": "2026-01-01T00:00:00Z",
          "last_updated_at": "2026-01-02T00:00:00Z",
          "settings": { "is_public": false },
          "theme": { "href": "https://api.typeform.com/themes/theme_fixture_1" },
          "_links": { "display": "https://admin.typeform.com/form/form_fixture_201/create" }
        }
      ]
    }
  }
}
