{
  "request": {
    "method": "GET",
    "path": "/tags",
    "query": {
      "page": "2",
      "page-size": "50"
    }
  },
  "response": {
    "status": 200,
    "body": {
      "response": {
        "status": "ok",
        "total": 51,
        "startIndex": 51,
        "pageSize": 50,
        "currentPage": 2,
        "pages": 2,
        "results": [
          {
            "id": "world/fixture-tag-51",
            "type": "keyword",
            "webTitle": "Fixture Tag 51",
            "webUrl": "https://www.theguardian.com/world/fixture-tag-51",
            "apiUrl": "https://content.guardianapis.com/world/fixture-tag-51",
            "sectionId": "world",
            "sectionName": "World news"
          }
        ]
      }
    }
  }
}
