{
  "request": { "method": "GET", "path": "/terminated-employees", "query": { "page": "2" } },
  "response": {
    "status": 200,
    "body": {
      "data": [
        { "id": 23, "termination_date": "2025-07-15", "employee_number": "T03", "email": "fixture23@example.com", "first_name": "Fixture", "last_name": "TermThree", "employment_start_date": "2021-01-10", "position": "Manager" }
      ],
      "meta": { "current_page": 2, "next_page": null, "previous_page": 1, "total_pages": 2, "per_page": 2, "total_entries": 3 }
    }
  }
}
