{
  "request": {
    "method": "GET",
    "path": "/sheets",
    "query": {
      "page": "1",
      "pageSize": "100"
    }
  },
  "response": {
    "status": 200,
    "body": {
      "pageNumber": 1,
      "pageSize": 100,
      "totalPages": 2,
      "totalCount": 101,
      "data": [
        {
          "id": 901,
          "name": "Fixture Sheet 1",
          "permalink": "https://app.smartsheet.com/sheets/fixture1",
          "modifiedAt": "2026-01-01T00:00:00Z"
        },
        {
          "id": 902,
          "name": "Fixture Sheet 2",
          "permalink": "https://app.smartsheet.com/sheets/fixture2",
          "modifiedAt": "2026-01-01T00:00:00Z"
        },
        {
          "id": 903,
          "name": "Fixture Sheet 3",
          "permalink": "https://app.smartsheet.com/sheets/fixture3",
          "modifiedAt": "2026-01-01T00:00:00Z"
        },
        {
          "id": 904,
          "name": "Fixture Sheet 4",
          "permalink": "https://app.smartsheet.com/sheets/fixture4",
          "modifiedAt": "2026-01-01T00:00:00Z"
        },
        {
          "id": 905,
          "name": "Fixture Sheet 5",
          "permalink": "https://app.smartsheet.com/sheets/fixture5",
          "modifiedAt": "2026-01-01T00:00:00Z"
        },
        {
          "id": 906,
          "name": "Fixture Sheet 6",
          "permalink": "https://app.smartsheet.com/sheets/fixture6",
          "modifiedAt": "2026-01-01T00:00:00Z"
        },
        {
          "id": 907,
          "name": "Fixture Sheet 7",
          "permalink": "https://app.smartsheet.com/sheets/fixture7",
          "modifiedAt": "2026-01-01T00:00:00Z"
        },
        {
          "id": 908,
          "name": "Fixture Sheet 8",
          "permalink": "https://app.smartsheet.com/sheets/fixture8",
          "modifiedAt": "2026-01-01T00:00:00Z"
        },
        {
          "id": 909,
          "name": "Fixture Sheet 9",
          "permalink": "https://app.smartsheet.com/sheets/fixture9",
          "modifiedAt": "2026-01-01T00:00:00Z"
        },
        {
          "id": 910,
          "name": "Fixture Sheet 10",
          "permalink": "https://app.smartsheet.com/sheets/fixture10",
          "modifiedAt": "2026-01-01T00:00:00Z"
        },
        {
          "id": 911,
          "name": "Fixture Sheet 11",
          "permalink": "https://app.smartsheet.com/sheets/fixture11",
          "modifiedAt": "2026-01-01T00:00:00Z"
        },
        {
          "id": 912,
          "name": "Fixture Sheet 12",
          "permalink": "https://app.smartsheet.com/sheets/fixture12",
          "modifiedAt": "2026-01-01T00:00:00Z"
        },
        {
          "id": 913,
          "name": "Fixture Sheet 13",
          "permalink": "https://app.smartsheet.com/sheets/fixture13",
          "modifiedAt": "2026-01-01T00:00:00Z"
        },
        {
          "id": 914,
          "name": "Fixture Sheet 14",
          "permalink": "https://app.smartsheet.com/sheets/fixture14",
          "modifiedAt": "2026-01-01T00:00:00Z"
        },
        {
          "id": 915,
          "name": "Fixture Sheet 15",
          "permalink": "https://app.smartsheet.com/sheets/fixture15",
          "modifiedAt": "2026-01-01T00:00:00Z"
        },
        {
          "id": 916,
          "name": "Fixture Sheet 16",
          "permalink": "https://app.smartsheet.com/sheets/fixture16",
          "modifiedAt": "2026-01-01T00:00:00Z"
        },
        {
          "id": 917,
          "name": "Fixture Sheet 17",
          "permalink": "https://app.smartsheet.com/sheets/fixture17",
          "modifiedAt": "2026-01-01T00:00:00Z"
        },
        {
          "id": 918,
          "name": "Fixture Sheet 18",
          "permalink": "https://app.smartsheet.com/sheets/fixture18",
          "modifiedAt": "2026-01-01T00:00:00Z"
        },
        {
          "id": 919,
          "name": "Fixture Sheet 19",
          "permalink": "https://app.smartsheet.com/sheets/fixture19",
          "modifiedAt": "2026-01-01T00:00:00Z"
        },
        {
          "id": 920,
          "name": "Fixture Sheet 20",
          "permalink": "https://app.smartsheet.com/sheets/fixture20",
          "modifiedAt": "2026-01-01T00:00:00Z"
        },
        {
          "id": 921,
          "name": "Fixture Sheet 21",
          "permalink": "https://app.smartsheet.com/sheets/fixture21",
          "modifiedAt": "2026-01-01T00:00:00Z"
        },
        {
          "id": 922,
          "name": "Fixture Sheet 22",
          "permalink": "https://app.smartsheet.com/sheets/fixture22",
          "modifiedAt": "2026-01-01T00:00:00Z"
        },
        {
          "id": 923,
          "name": "Fixture Sheet 23",
          "permalink": "https://app.smartsheet.com/sheets/fixture23",
          "modifiedAt": "2026-01-01T00:00:00Z"
        },
        {
          "id": 924,
          "name": "Fixture Sheet 24",
          "permalink": "https://app.smartsheet.com/sheets/fixture24",
          "modifiedAt": "2026-01-01T00:00:00Z"
        },
        {
          "id": 925,
          "name": "Fixture Sheet 25",
          "permalink": "https://app.smartsheet.com/sheets/fixture25",
          "modifiedAt": "2026-01-01T00:00:00Z"
        },
        {
          "id": 926,
          "name": "Fixture Sheet 26",
          "permalink": "https://app.smartsheet.com/sheets/fixture26",
          "modifiedAt": "2026-01-01T00:00:00Z"
        },
        {
          "id": 927,
          "name": "Fixture Sheet 27",
          "permalink": "https://app.smartsheet.com/sheets/fixture27",
          "modifiedAt": "2026-01-01T00:00:00Z"
        },
        {
          "id": 928,
          "name": "Fixture Sheet 28",
          "permalink": "https://app.smartsheet.com/sheets/fixture28",
          "modifiedAt": "2026-01-01T00:00:00Z"
        },
        {
          "id": 929,
          "name": "Fixture Sheet 29",
          "permalink": "https://app.smartsheet.com/sheets/fixture29",
          "modifiedAt": "2026-01-01T00:00:00Z"
        },
        {
          "id": 930,
          "name": "Fixture Sheet 30",
          "permalink": "https://app.smartsheet.com/sheets/fixture30",
          "modifiedAt": "2026-01-01T00:00:00Z"
        },
        {
          "id": 931,
          "name": "Fixture Sheet 31",
          "permalink": "https://app.smartsheet.com/sheets/fixture31",
          "modifiedAt": "2026-01-01T00:00:00Z"
        },
        {
          "id": 932,
          "name": "Fixture Sheet 32",
          "permalink": "https://app.smartsheet.com/sheets/fixture32",
          "modifiedAt": "2026-01-01T00:00:00Z"
        },
        {
          "id": 933,
          "name": "Fixture Sheet 33",
          "permalink": "https://app.smartsheet.com/sheets/fixture33",
          "modifiedAt": "2026-01-01T00:00:00Z"
        },
        {
          "id": 934,
          "name": "Fixture Sheet 34",
          "permalink": "https://app.smartsheet.com/sheets/fixture34",
          "modifiedAt": "2026-01-01T00:00:00Z"
        },
        {
          "id": 935,
          "name": "Fixture Sheet 35",
          "permalink": "https://app.smartsheet.com/sheets/fixture35",
          "modifiedAt": "2026-01-01T00:00:00Z"
        },
        {
          "id": 936,
          "name": "Fixture Sheet 36",
          "permalink": "https://app.smartsheet.com/sheets/fixture36",
          "modifiedAt": "2026-01-01T00:00:00Z"
        },
        {
          "id": 937,
          "name": "Fixture Sheet 37",
          "permalink": "https://app.smartsheet.com/sheets/fixture37",
          "modifiedAt": "2026-01-01T00:00:00Z"
        },
        {
          "id": 938,
          "name": "Fixture Sheet 38",
          "permalink": "https://app.smartsheet.com/sheets/fixture38",
          "modifiedAt": "2026-01-01T00:00:00Z"
        },
        {
          "id": 939,
          "name": "Fixture Sheet 39",
          "permalink": "https://app.smartsheet.com/sheets/fixture39",
          "modifiedAt": "2026-01-01T00:00:00Z"
        },
        {
          "id": 940,
          "name": "Fixture Sheet 40",
          "permalink": "https://app.smartsheet.com/sheets/fixture40",
          "modifiedAt": "2026-01-01T00:00:00Z"
        },
        {
          "id": 941,
          "name": "Fixture Sheet 41",
          "permalink": "https://app.smartsheet.com/sheets/fixture41",
          "modifiedAt": "2026-01-01T00:00:00Z"
        },
        {
          "id": 942,
          "name": "Fixture Sheet 42",
          "permalink": "https://app.smartsheet.com/sheets/fixture42",
          "modifiedAt": "2026-01-01T00:00:00Z"
        },
        {
          "id": 943,
          "name": "Fixture Sheet 43",
          "permalink": "https://app.smartsheet.com/sheets/fixture43",
          "modifiedAt": "2026-01-01T00:00:00Z"
        },
        {
          "id": 944,
          "name": "Fixture Sheet 44",
          "permalink": "https://app.smartsheet.com/sheets/fixture44",
          "modifiedAt": "2026-01-01T00:00:00Z"
        },
        {
          "id": 945,
          "name": "Fixture Sheet 45",
          "permalink": "https://app.smartsheet.com/sheets/fixture45",
          "modifiedAt": "2026-01-01T00:00:00Z"
        },
        {
          "id": 946,
          "name": "Fixture Sheet 46",
          "permalink": "https://app.smartsheet.com/sheets/fixture46",
          "modifiedAt": "2026-01-01T00:00:00Z"
        },
        {
          "id": 947,
          "name": "Fixture Sheet 47",
          "permalink": "https://app.smartsheet.com/sheets/fixture47",
          "modifiedAt": "2026-01-01T00:00:00Z"
        },
        {
          "id": 948,
          "name": "Fixture Sheet 48",
          "permalink": "https://app.smartsheet.com/sheets/fixture48",
          "modifiedAt": "2026-01-01T00:00:00Z"
        },
        {
          "id": 949,
          "name": "Fixture Sheet 49",
          "permalink": "https://app.smartsheet.com/sheets/fixture49",
          "modifiedAt": "2026-01-01T00:00:00Z"
        },
        {
          "id": 950,
          "name": "Fixture Sheet 50",
          "permalink": "https://app.smartsheet.com/sheets/fixture50",
          "modifiedAt": "2026-01-01T00:00:00Z"
        },
        {
          "id": 951,
          "name": "Fixture Sheet 51",
          "permalink": "https://app.smartsheet.com/sheets/fixture51",
          "modifiedAt": "2026-01-01T00:00:00Z"
        },
        {
          "id": 952,
          "name": "Fixture Sheet 52",
          "permalink": "https://app.smartsheet.com/sheets/fixture52",
          "modifiedAt": "2026-01-01T00:00:00Z"
        },
        {
          "id": 953,
          "name": "Fixture Sheet 53",
          "permalink": "https://app.smartsheet.com/sheets/fixture53",
          "modifiedAt": "2026-01-01T00:00:00Z"
        },
        {
          "id": 954,
          "name": "Fixture Sheet 54",
          "permalink": "https://app.smartsheet.com/sheets/fixture54",
          "modifiedAt": "2026-01-01T00:00:00Z"
        },
        {
          "id": 955,
          "name": "Fixture Sheet 55",
          "permalink": "https://app.smartsheet.com/sheets/fixture55",
          "modifiedAt": "2026-01-01T00:00:00Z"
        },
        {
          "id": 956,
          "name": "Fixture Sheet 56",
          "permalink": "https://app.smartsheet.com/sheets/fixture56",
          "modifiedAt": "2026-01-01T00:00:00Z"
        },
        {
          "id": 957,
          "name": "Fixture Sheet 57",
          "permalink": "https://app.smartsheet.com/sheets/fixture57",
          "modifiedAt": "2026-01-01T00:00:00Z"
        },
        {
          "id": 958,
          "name": "Fixture Sheet 58",
          "permalink": "https://app.smartsheet.com/sheets/fixture58",
          "modifiedAt": "2026-01-01T00:00:00Z"
        },
        {
          "id": 959,
          "name": "Fixture Sheet 59",
          "permalink": "https://app.smartsheet.com/sheets/fixture59",
          "modifiedAt": "2026-01-01T00:00:00Z"
        },
        {
          "id": 960,
          "name": "Fixture Sheet 60",
          "permalink": "https://app.smartsheet.com/sheets/fixture60",
          "modifiedAt": "2026-01-01T00:00:00Z"
        },
        {
          "id": 961,
          "name": "Fixture Sheet 61",
          "permalink": "https://app.smartsheet.com/sheets/fixture61",
          "modifiedAt": "2026-01-01T00:00:00Z"
        },
        {
          "id": 962,
          "name": "Fixture Sheet 62",
          "permalink": "https://app.smartsheet.com/sheets/fixture62",
          "modifiedAt": "2026-01-01T00:00:00Z"
        },
        {
          "id": 963,
          "name": "Fixture Sheet 63",
          "permalink": "https://app.smartsheet.com/sheets/fixture63",
          "modifiedAt": "2026-01-01T00:00:00Z"
        },
        {
          "id": 964,
          "name": "Fixture Sheet 64",
          "permalink": "https://app.smartsheet.com/sheets/fixture64",
          "modifiedAt": "2026-01-01T00:00:00Z"
        },
        {
          "id": 965,
          "name": "Fixture Sheet 65",
          "permalink": "https://app.smartsheet.com/sheets/fixture65",
          "modifiedAt": "2026-01-01T00:00:00Z"
        },
        {
          "id": 966,
          "name": "Fixture Sheet 66",
          "permalink": "https://app.smartsheet.com/sheets/fixture66",
          "modifiedAt": "2026-01-01T00:00:00Z"
        },
        {
          "id": 967,
          "name": "Fixture Sheet 67",
          "permalink": "https://app.smartsheet.com/sheets/fixture67",
          "modifiedAt": "2026-01-01T00:00:00Z"
        },
        {
          "id": 968,
          "name": "Fixture Sheet 68",
          "permalink": "https://app.smartsheet.com/sheets/fixture68",
          "modifiedAt": "2026-01-01T00:00:00Z"
        },
        {
          "id": 969,
          "name": "Fixture Sheet 69",
          "permalink": "https://app.smartsheet.com/sheets/fixture69",
          "modifiedAt": "2026-01-01T00:00:00Z"
        },
        {
          "id": 970,
          "name": "Fixture Sheet 70",
          "permalink": "https://app.smartsheet.com/sheets/fixture70",
          "modifiedAt": "2026-01-01T00:00:00Z"
        },
        {
          "id": 971,
          "name": "Fixture Sheet 71",
          "permalink": "https://app.smartsheet.com/sheets/fixture71",
          "modifiedAt": "2026-01-01T00:00:00Z"
        },
        {
          "id": 972,
          "name": "Fixture Sheet 72",
          "permalink": "https://app.smartsheet.com/sheets/fixture72",
          "modifiedAt": "2026-01-01T00:00:00Z"
        },
        {
          "id": 973,
          "name": "Fixture Sheet 73",
          "permalink": "https://app.smartsheet.com/sheets/fixture73",
          "modifiedAt": "2026-01-01T00:00:00Z"
        },
        {
          "id": 974,
          "name": "Fixture Sheet 74",
          "permalink": "https://app.smartsheet.com/sheets/fixture74",
          "modifiedAt": "2026-01-01T00:00:00Z"
        },
        {
          "id": 975,
          "name": "Fixture Sheet 75",
          "permalink": "https://app.smartsheet.com/sheets/fixture75",
          "modifiedAt": "2026-01-01T00:00:00Z"
        },
        {
          "id": 976,
          "name": "Fixture Sheet 76",
          "permalink": "https://app.smartsheet.com/sheets/fixture76",
          "modifiedAt": "2026-01-01T00:00:00Z"
        },
        {
          "id": 977,
          "name": "Fixture Sheet 77",
          "permalink": "https://app.smartsheet.com/sheets/fixture77",
          "modifiedAt": "2026-01-01T00:00:00Z"
        },
        {
          "id": 978,
          "name": "Fixture Sheet 78",
          "permalink": "https://app.smartsheet.com/sheets/fixture78",
          "modifiedAt": "2026-01-01T00:00:00Z"
        },
        {
          "id": 979,
          "name": "Fixture Sheet 79",
          "permalink": "https://app.smartsheet.com/sheets/fixture79",
          "modifiedAt": "2026-01-01T00:00:00Z"
        },
        {
          "id": 980,
          "name": "Fixture Sheet 80",
          "permalink": "https://app.smartsheet.com/sheets/fixture80",
          "modifiedAt": "2026-01-01T00:00:00Z"
        },
        {
          "id": 981,
          "name": "Fixture Sheet 81",
          "permalink": "https://app.smartsheet.com/sheets/fixture81",
          "modifiedAt": "2026-01-01T00:00:00Z"
        },
        {
          "id": 982,
          "name": "Fixture Sheet 82",
          "permalink": "https://app.smartsheet.com/sheets/fixture82",
          "modifiedAt": "2026-01-01T00:00:00Z"
        },
        {
          "id": 983,
          "name": "Fixture Sheet 83",
          "permalink": "https://app.smartsheet.com/sheets/fixture83",
          "modifiedAt": "2026-01-01T00:00:00Z"
        },
        {
          "id": 984,
          "name": "Fixture Sheet 84",
          "permalink": "https://app.smartsheet.com/sheets/fixture84",
          "modifiedAt": "2026-01-01T00:00:00Z"
        },
        {
          "id": 985,
          "name": "Fixture Sheet 85",
          "permalink": "https://app.smartsheet.com/sheets/fixture85",
          "modifiedAt": "2026-01-01T00:00:00Z"
        },
        {
          "id": 986,
          "name": "Fixture Sheet 86",
          "permalink": "https://app.smartsheet.com/sheets/fixture86",
          "modifiedAt": "2026-01-01T00:00:00Z"
        },
        {
          "id": 987,
          "name": "Fixture Sheet 87",
          "permalink": "https://app.smartsheet.com/sheets/fixture87",
          "modifiedAt": "2026-01-01T00:00:00Z"
        },
        {
          "id": 988,
          "name": "Fixture Sheet 88",
          "permalink": "https://app.smartsheet.com/sheets/fixture88",
          "modifiedAt": "2026-01-01T00:00:00Z"
        },
        {
          "id": 989,
          "name": "Fixture Sheet 89",
          "permalink": "https://app.smartsheet.com/sheets/fixture89",
          "modifiedAt": "2026-01-01T00:00:00Z"
        },
        {
          "id": 990,
          "name": "Fixture Sheet 90",
          "permalink": "https://app.smartsheet.com/sheets/fixture90",
          "modifiedAt": "2026-01-01T00:00:00Z"
        },
        {
          "id": 991,
          "name": "Fixture Sheet 91",
          "permalink": "https://app.smartsheet.com/sheets/fixture91",
          "modifiedAt": "2026-01-01T00:00:00Z"
        },
        {
          "id": 992,
          "name": "Fixture Sheet 92",
          "permalink": "https://app.smartsheet.com/sheets/fixture92",
          "modifiedAt": "2026-01-01T00:00:00Z"
        },
        {
          "id": 993,
          "name": "Fixture Sheet 93",
          "permalink": "https://app.smartsheet.com/sheets/fixture93",
          "modifiedAt": "2026-01-01T00:00:00Z"
        },
        {
          "id": 994,
          "name": "Fixture Sheet 94",
          "permalink": "https://app.smartsheet.com/sheets/fixture94",
          "modifiedAt": "2026-01-01T00:00:00Z"
        },
        {
          "id": 995,
          "name": "Fixture Sheet 95",
          "permalink": "https://app.smartsheet.com/sheets/fixture95",
          "modifiedAt": "2026-01-01T00:00:00Z"
        },
        {
          "id": 996,
          "name": "Fixture Sheet 96",
          "permalink": "https://app.smartsheet.com/sheets/fixture96",
          "modifiedAt": "2026-01-01T00:00:00Z"
        },
        {
          "id": 997,
          "name": "Fixture Sheet 97",
          "permalink": "https://app.smartsheet.com/sheets/fixture97",
          "modifiedAt": "2026-01-01T00:00:00Z"
        },
        {
          "id": 998,
          "name": "Fixture Sheet 98",
          "permalink": "https://app.smartsheet.com/sheets/fixture98",
          "modifiedAt": "2026-01-01T00:00:00Z"
        },
        {
          "id": 999,
          "name": "Fixture Sheet 99",
          "permalink": "https://app.smartsheet.com/sheets/fixture99",
          "modifiedAt": "2026-01-01T00:00:00Z"
        },
        {
          "id": 1000,
          "name": "Fixture Sheet 100",
          "permalink": "https://app.smartsheet.com/sheets/fixture100",
          "modifiedAt": "2026-01-01T00:00:00Z"
        }
      ]
    }
  }
}
