{
  "request": {
    "method": "GET",
    "path": "/choice_lists.json",
    "query": {
      "page": "1",
      "per_page": "100"
    }
  },
  "response": {
    "status": 200,
    "body": {
      "choice_lists": [
        {
          "id": "choice_list_fixture_p1_1",
          "name": "Fixture Choice_list 1-1",
          "description": "conformance fixture record",
          "created_at": "2026-01-01T00:00:00Z",
          "updated_at": "2026-01-01T00:00:00Z"
        },
        {
          "id": "choice_list_fixture_p1_2",
          "name": "Fixture Choice_list 1-2",
          "description": "conformance fixture record",
          "created_at": "2026-01-01T00:00:00Z",
          "updated_at": "2026-01-01T00:00:00Z"
        },
        {
          "id": "choice_list_fixture_p1_3",
          "name": "Fixture Choice_list 1-3",
          "description": "conformance fixture record",
          "created_at": "2026-01-01T00:00:00Z",
          "updated_at": "2026-01-01T00:00:00Z"
        },
        {
          "id": "choice_list_fixture_p1_4",
          "name": "Fixture Choice_list 1-4",
          "description": "conformance fixture record",
          "created_at": "2026-01-01T00:00:00Z",
          "updated_at": "2026-01-01T00:00:00Z"
        },
        {
          "id": "choice_list_fixture_p1_5",
          "name": "Fixture Choice_list 1-5",
          "description": "conformance fixture record",
          "created_at": "2026-01-01T00:00:00Z",
          "updated_at": "2026-01-01T00:00:00Z"
        },
        {
          "id": "choice_list_fixture_p1_6",
          "name": "Fixture Choice_list 1-6",
          "description": "conformance fixture record",
          "created_at": "2026-01-01T00:00:00Z",
          "updated_at": "2026-01-01T00:00:00Z"
        },
        {
          "id": "choice_list_fixture_p1_7",
          "name": "Fixture Choice_list 1-7",
          "description": "conformance fixture record",
          "created_at": "2026-01-01T00:00:00Z",
          "updated_at": "2026-01-01T00:00:00Z"
        },
        {
          "id": "choice_list_fixture_p1_8",
          "name": "Fixture Choice_list 1-8",
          "description": "conformance fixture record",
          "created_at": "2026-01-01T00:00:00Z",
          "updated_at": "2026-01-01T00:00:00Z"
        },
        {
          "id": "choice_list_fixture_p1_9",
          "name": "Fixture Choice_list 1-9",
          "description": "conformance fixture record",
          "created_at": "2026-01-01T00:00:00Z",
          "updated_at": "2026-01-01T00:00:00Z"
        },
        {
          "id": "choice_list_fixture_p1_10",
          "name": "Fixture Choice_list 1-10",
          "description": "conformance fixture record",
          "created_at": "2026-01-01T00:00:00Z",
          "updated_at": "2026-01-01T00:00:00Z"
        },
        {
          "id": "choice_list_fixture_p1_11",
          "name": "Fixture Choice_list 1-11",
          "description": "conformance fixture record",
          "created_at": "2026-01-01T00:00:00Z",
          "updated_at": "2026-01-01T00:00:00Z"
        },
        {
          "id": "choice_list_fixture_p1_12",
          "name": "Fixture Choice_list 1-12",
          "description": "conformance fixture record",
          "created_at": "2026-01-01T00:00:00Z",
          "updated_at": "2026-01-01T00:00:00Z"
        },
        {
          "id": "choice_list_fixture_p1_13",
          "name": "Fixture Choice_list 1-13",
          "description": "conformance fixture record",
          "created_at": "2026-01-01T00:00:00Z",
          "updated_at": "2026-01-01T00:00:00Z"
        },
        {
          "id": "choice_list_fixture_p1_14",
          "name": "Fixture Choice_list 1-14",
          "description": "conformance fixture record",
          "created_at": "2026-01-01T00:00:00Z",
          "updated_at": "2026-01-01T00:00:00Z"
        },
        {
          "id": "choice_list_fixture_p1_15",
          "name": "Fixture Choice_list 1-15",
          "description": "conformance fixture record",
          "created_at": "2026-01-01T00:00:00Z",
          "updated_at": "2026-01-01T00:00:00Z"
        },
        {
          "id": "choice_list_fixture_p1_16",
          "name": "Fixture Choice_list 1-16",
          "description": "conformance fixture record",
          "created_at": "2026-01-01T00:00:00Z",
          "updated_at": "2026-01-01T00:00:00Z"
        },
        {
          "id": "choice_list_fixture_p1_17",
          "name": "Fixture Choice_list 1-17",
          "description": "conformance fixture record",
          "created_at": "2026-01-01T00:00:00Z",
          "updated_at": "2026-01-01T00:00:00Z"
        },
        {
          "id": "choice_list_fixture_p1_18",
          "name": "Fixture Choice_list 1-18",
          "description": "conformance fixture record",
          "created_at": "2026-01-01T00:00:00Z",
          "updated_at": "2026-01-01T00:00:00Z"
        },
        {
          "id": "choice_list_fixture_p1_19",
          "name": "Fixture Choice_list 1-19",
          "description": "conformance fixture record",
          "created_at": "2026-01-01T00:00:00Z",
          "updated_at": "2026-01-01T00:00:00Z"
        },
        {
          "id": "choice_list_fixture_p1_20",
          "name": "Fixture Choice_list 1-20",
          "description": "conformance fixture record",
          "created_at": "2026-01-01T00:00:00Z",
          "updated_at": "2026-01-01T00:00:00Z"
        },
        {
          "id": "choice_list_fixture_p1_21",
          "name": "Fixture Choice_list 1-21",
          "description": "conformance fixture record",
          "created_at": "2026-01-01T00:00:00Z",
          "updated_at": "2026-01-01T00:00:00Z"
        },
        {
          "id": "choice_list_fixture_p1_22",
          "name": "Fixture Choice_list 1-22",
          "description": "conformance fixture record",
          "created_at": "2026-01-01T00:00:00Z",
          "updated_at": "2026-01-01T00:00:00Z"
        },
        {
          "id": "choice_list_fixture_p1_23",
          "name": "Fixture Choice_list 1-23",
          "description": "conformance fixture record",
          "created_at": "2026-01-01T00:00:00Z",
          "updated_at": "2026-01-01T00:00:00Z"
        },
        {
          "id": "choice_list_fixture_p1_24",
          "name": "Fixture Choice_list 1-24",
          "description": "conformance fixture record",
          "created_at": "2026-01-01T00:00:00Z",
          "updated_at": "2026-01-01T00:00:00Z"
        },
        {
          "id": "choice_list_fixture_p1_25",
          "name": "Fixture Choice_list 1-25",
          "description": "conformance fixture record",
          "created_at": "2026-01-01T00:00:00Z",
          "updated_at": "2026-01-01T00:00:00Z"
        },
        {
          "id": "choice_list_fixture_p1_26",
          "name": "Fixture Choice_list 1-26",
          "description": "conformance fixture record",
          "created_at": "2026-01-01T00:00:00Z",
          "updated_at": "2026-01-01T00:00:00Z"
        },
        {
          "id": "choice_list_fixture_p1_27",
          "name": "Fixture Choice_list 1-27",
          "description": "conformance fixture record",
          "created_at": "2026-01-01T00:00:00Z",
          "updated_at": "2026-01-01T00:00:00Z"
        },
        {
          "id": "choice_list_fixture_p1_28",
          "name": "Fixture Choice_list 1-28",
          "description": "conformance fixture record",
          "created_at": "2026-01-01T00:00:00Z",
          "updated_at": "2026-01-01T00:00:00Z"
        },
        {
          "id": "choice_list_fixture_p1_29",
          "name": "Fixture Choice_list 1-29",
          "description": "conformance fixture record",
          "created_at": "2026-01-01T00:00:00Z",
          "updated_at": "2026-01-01T00:00:00Z"
        },
        {
          "id": "choice_list_fixture_p1_30",
          "name": "Fixture Choice_list 1-30",
          "description": "conformance fixture record",
          "created_at": "2026-01-01T00:00:00Z",
          "updated_at": "2026-01-01T00:00:00Z"
        },
        {
          "id": "choice_list_fixture_p1_31",
          "name": "Fixture Choice_list 1-31",
          "description": "conformance fixture record",
          "created_at": "2026-01-01T00:00:00Z",
          "updated_at": "2026-01-01T00:00:00Z"
        },
        {
          "id": "choice_list_fixture_p1_32",
          "name": "Fixture Choice_list 1-32",
          "description": "conformance fixture record",
          "created_at": "2026-01-01T00:00:00Z",
          "updated_at": "2026-01-01T00:00:00Z"
        },
        {
          "id": "choice_list_fixture_p1_33",
          "name": "Fixture Choice_list 1-33",
          "description": "conformance fixture record",
          "created_at": "2026-01-01T00:00:00Z",
          "updated_at": "2026-01-01T00:00:00Z"
        },
        {
          "id": "choice_list_fixture_p1_34",
          "name": "Fixture Choice_list 1-34",
          "description": "conformance fixture record",
          "created_at": "2026-01-01T00:00:00Z",
          "updated_at": "2026-01-01T00:00:00Z"
        },
        {
          "id": "choice_list_fixture_p1_35",
          "name": "Fixture Choice_list 1-35",
          "description": "conformance fixture record",
          "created_at": "2026-01-01T00:00:00Z",
          "updated_at": "2026-01-01T00:00:00Z"
        },
        {
          "id": "choice_list_fixture_p1_36",
          "name": "Fixture Choice_list 1-36",
          "description": "conformance fixture record",
          "created_at": "2026-01-01T00:00:00Z",
          "updated_at": "2026-01-01T00:00:00Z"
        },
        {
          "id": "choice_list_fixture_p1_37",
          "name": "Fixture Choice_list 1-37",
          "description": "conformance fixture record",
          "created_at": "2026-01-01T00:00:00Z",
          "updated_at": "2026-01-01T00:00:00Z"
        },
        {
          "id": "choice_list_fixture_p1_38",
          "name": "Fixture Choice_list 1-38",
          "description": "conformance fixture record",
          "created_at": "2026-01-01T00:00:00Z",
          "updated_at": "2026-01-01T00:00:00Z"
        },
        {
          "id": "choice_list_fixture_p1_39",
          "name": "Fixture Choice_list 1-39",
          "description": "conformance fixture record",
          "created_at": "2026-01-01T00:00:00Z",
          "updated_at": "2026-01-01T00:00:00Z"
        },
        {
          "id": "choice_list_fixture_p1_40",
          "name": "Fixture Choice_list 1-40",
          "description": "conformance fixture record",
          "created_at": "2026-01-01T00:00:00Z",
          "updated_at": "2026-01-01T00:00:00Z"
        },
        {
          "id": "choice_list_fixture_p1_41",
          "name": "Fixture Choice_list 1-41",
          "description": "conformance fixture record",
          "created_at": "2026-01-01T00:00:00Z",
          "updated_at": "2026-01-01T00:00:00Z"
        },
        {
          "id": "choice_list_fixture_p1_42",
          "name": "Fixture Choice_list 1-42",
          "description": "conformance fixture record",
          "created_at": "2026-01-01T00:00:00Z",
          "updated_at": "2026-01-01T00:00:00Z"
        },
        {
          "id": "choice_list_fixture_p1_43",
          "name": "Fixture Choice_list 1-43",
          "description": "conformance fixture record",
          "created_at": "2026-01-01T00:00:00Z",
          "updated_at": "2026-01-01T00:00:00Z"
        },
        {
          "id": "choice_list_fixture_p1_44",
          "name": "Fixture Choice_list 1-44",
          "description": "conformance fixture record",
          "created_at": "2026-01-01T00:00:00Z",
          "updated_at": "2026-01-01T00:00:00Z"
        },
        {
          "id": "choice_list_fixture_p1_45",
          "name": "Fixture Choice_list 1-45",
          "description": "conformance fixture record",
          "created_at": "2026-01-01T00:00:00Z",
          "updated_at": "2026-01-01T00:00:00Z"
        },
        {
          "id": "choice_list_fixture_p1_46",
          "name": "Fixture Choice_list 1-46",
          "description": "conformance fixture record",
          "created_at": "2026-01-01T00:00:00Z",
          "updated_at": "2026-01-01T00:00:00Z"
        },
        {
          "id": "choice_list_fixture_p1_47",
          "name": "Fixture Choice_list 1-47",
          "description": "conformance fixture record",
          "created_at": "2026-01-01T00:00:00Z",
          "updated_at": "2026-01-01T00:00:00Z"
        },
        {
          "id": "choice_list_fixture_p1_48",
          "name": "Fixture Choice_list 1-48",
          "description": "conformance fixture record",
          "created_at": "2026-01-01T00:00:00Z",
          "updated_at": "2026-01-01T00:00:00Z"
        },
        {
          "id": "choice_list_fixture_p1_49",
          "name": "Fixture Choice_list 1-49",
          "description": "conformance fixture record",
          "created_at": "2026-01-01T00:00:00Z",
          "updated_at": "2026-01-01T00:00:00Z"
        },
        {
          "id": "choice_list_fixture_p1_50",
          "name": "Fixture Choice_list 1-50",
          "description": "conformance fixture record",
          "created_at": "2026-01-01T00:00:00Z",
          "updated_at": "2026-01-01T00:00:00Z"
        },
        {
          "id": "choice_list_fixture_p1_51",
          "name": "Fixture Choice_list 1-51",
          "description": "conformance fixture record",
          "created_at": "2026-01-01T00:00:00Z",
          "updated_at": "2026-01-01T00:00:00Z"
        },
        {
          "id": "choice_list_fixture_p1_52",
          "name": "Fixture Choice_list 1-52",
          "description": "conformance fixture record",
          "created_at": "2026-01-01T00:00:00Z",
          "updated_at": "2026-01-01T00:00:00Z"
        },
        {
          "id": "choice_list_fixture_p1_53",
          "name": "Fixture Choice_list 1-53",
          "description": "conformance fixture record",
          "created_at": "2026-01-01T00:00:00Z",
          "updated_at": "2026-01-01T00:00:00Z"
        },
        {
          "id": "choice_list_fixture_p1_54",
          "name": "Fixture Choice_list 1-54",
          "description": "conformance fixture record",
          "created_at": "2026-01-01T00:00:00Z",
          "updated_at": "2026-01-01T00:00:00Z"
        },
        {
          "id": "choice_list_fixture_p1_55",
          "name": "Fixture Choice_list 1-55",
          "description": "conformance fixture record",
          "created_at": "2026-01-01T00:00:00Z",
          "updated_at": "2026-01-01T00:00:00Z"
        },
        {
          "id": "choice_list_fixture_p1_56",
          "name": "Fixture Choice_list 1-56",
          "description": "conformance fixture record",
          "created_at": "2026-01-01T00:00:00Z",
          "updated_at": "2026-01-01T00:00:00Z"
        },
        {
          "id": "choice_list_fixture_p1_57",
          "name": "Fixture Choice_list 1-57",
          "description": "conformance fixture record",
          "created_at": "2026-01-01T00:00:00Z",
          "updated_at": "2026-01-01T00:00:00Z"
        },
        {
          "id": "choice_list_fixture_p1_58",
          "name": "Fixture Choice_list 1-58",
          "description": "conformance fixture record",
          "created_at": "2026-01-01T00:00:00Z",
          "updated_at": "2026-01-01T00:00:00Z"
        },
        {
          "id": "choice_list_fixture_p1_59",
          "name": "Fixture Choice_list 1-59",
          "description": "conformance fixture record",
          "created_at": "2026-01-01T00:00:00Z",
          "updated_at": "2026-01-01T00:00:00Z"
        },
        {
          "id": "choice_list_fixture_p1_60",
          "name": "Fixture Choice_list 1-60",
          "description": "conformance fixture record",
          "created_at": "2026-01-01T00:00:00Z",
          "updated_at": "2026-01-01T00:00:00Z"
        },
        {
          "id": "choice_list_fixture_p1_61",
          "name": "Fixture Choice_list 1-61",
          "description": "conformance fixture record",
          "created_at": "2026-01-01T00:00:00Z",
          "updated_at": "2026-01-01T00:00:00Z"
        },
        {
          "id": "choice_list_fixture_p1_62",
          "name": "Fixture Choice_list 1-62",
          "description": "conformance fixture record",
          "created_at": "2026-01-01T00:00:00Z",
          "updated_at": "2026-01-01T00:00:00Z"
        },
        {
          "id": "choice_list_fixture_p1_63",
          "name": "Fixture Choice_list 1-63",
          "description": "conformance fixture record",
          "created_at": "2026-01-01T00:00:00Z",
          "updated_at": "2026-01-01T00:00:00Z"
        },
        {
          "id": "choice_list_fixture_p1_64",
          "name": "Fixture Choice_list 1-64",
          "description": "conformance fixture record",
          "created_at": "2026-01-01T00:00:00Z",
          "updated_at": "2026-01-01T00:00:00Z"
        },
        {
          "id": "choice_list_fixture_p1_65",
          "name": "Fixture Choice_list 1-65",
          "description": "conformance fixture record",
          "created_at": "2026-01-01T00:00:00Z",
          "updated_at": "2026-01-01T00:00:00Z"
        },
        {
          "id": "choice_list_fixture_p1_66",
          "name": "Fixture Choice_list 1-66",
          "description": "conformance fixture record",
          "created_at": "2026-01-01T00:00:00Z",
          "updated_at": "2026-01-01T00:00:00Z"
        },
        {
          "id": "choice_list_fixture_p1_67",
          "name": "Fixture Choice_list 1-67",
          "description": "conformance fixture record",
          "created_at": "2026-01-01T00:00:00Z",
          "updated_at": "2026-01-01T00:00:00Z"
        },
        {
          "id": "choice_list_fixture_p1_68",
          "name": "Fixture Choice_list 1-68",
          "description": "conformance fixture record",
          "created_at": "2026-01-01T00:00:00Z",
          "updated_at": "2026-01-01T00:00:00Z"
        },
        {
          "id": "choice_list_fixture_p1_69",
          "name": "Fixture Choice_list 1-69",
          "description": "conformance fixture record",
          "created_at": "2026-01-01T00:00:00Z",
          "updated_at": "2026-01-01T00:00:00Z"
        },
        {
          "id": "choice_list_fixture_p1_70",
          "name": "Fixture Choice_list 1-70",
          "description": "conformance fixture record",
          "created_at": "2026-01-01T00:00:00Z",
          "updated_at": "2026-01-01T00:00:00Z"
        },
        {
          "id": "choice_list_fixture_p1_71",
          "name": "Fixture Choice_list 1-71",
          "description": "conformance fixture record",
          "created_at": "2026-01-01T00:00:00Z",
          "updated_at": "2026-01-01T00:00:00Z"
        },
        {
          "id": "choice_list_fixture_p1_72",
          "name": "Fixture Choice_list 1-72",
          "description": "conformance fixture record",
          "created_at": "2026-01-01T00:00:00Z",
          "updated_at": "2026-01-01T00:00:00Z"
        },
        {
          "id": "choice_list_fixture_p1_73",
          "name": "Fixture Choice_list 1-73",
          "description": "conformance fixture record",
          "created_at": "2026-01-01T00:00:00Z",
          "updated_at": "2026-01-01T00:00:00Z"
        },
        {
          "id": "choice_list_fixture_p1_74",
          "name": "Fixture Choice_list 1-74",
          "description": "conformance fixture record",
          "created_at": "2026-01-01T00:00:00Z",
          "updated_at": "2026-01-01T00:00:00Z"
        },
        {
          "id": "choice_list_fixture_p1_75",
          "name": "Fixture Choice_list 1-75",
          "description": "conformance fixture record",
          "created_at": "2026-01-01T00:00:00Z",
          "updated_at": "2026-01-01T00:00:00Z"
        },
        {
          "id": "choice_list_fixture_p1_76",
          "name": "Fixture Choice_list 1-76",
          "description": "conformance fixture record",
          "created_at": "2026-01-01T00:00:00Z",
          "updated_at": "2026-01-01T00:00:00Z"
        },
        {
          "id": "choice_list_fixture_p1_77",
          "name": "Fixture Choice_list 1-77",
          "description": "conformance fixture record",
          "created_at": "2026-01-01T00:00:00Z",
          "updated_at": "2026-01-01T00:00:00Z"
        },
        {
          "id": "choice_list_fixture_p1_78",
          "name": "Fixture Choice_list 1-78",
          "description": "conformance fixture record",
          "created_at": "2026-01-01T00:00:00Z",
          "updated_at": "2026-01-01T00:00:00Z"
        },
        {
          "id": "choice_list_fixture_p1_79",
          "name": "Fixture Choice_list 1-79",
          "description": "conformance fixture record",
          "created_at": "2026-01-01T00:00:00Z",
          "updated_at": "2026-01-01T00:00:00Z"
        },
        {
          "id": "choice_list_fixture_p1_80",
          "name": "Fixture Choice_list 1-80",
          "description": "conformance fixture record",
          "created_at": "2026-01-01T00:00:00Z",
          "updated_at": "2026-01-01T00:00:00Z"
        },
        {
          "id": "choice_list_fixture_p1_81",
          "name": "Fixture Choice_list 1-81",
          "description": "conformance fixture record",
          "created_at": "2026-01-01T00:00:00Z",
          "updated_at": "2026-01-01T00:00:00Z"
        },
        {
          "id": "choice_list_fixture_p1_82",
          "name": "Fixture Choice_list 1-82",
          "description": "conformance fixture record",
          "created_at": "2026-01-01T00:00:00Z",
          "updated_at": "2026-01-01T00:00:00Z"
        },
        {
          "id": "choice_list_fixture_p1_83",
          "name": "Fixture Choice_list 1-83",
          "description": "conformance fixture record",
          "created_at": "2026-01-01T00:00:00Z",
          "updated_at": "2026-01-01T00:00:00Z"
        },
        {
          "id": "choice_list_fixture_p1_84",
          "name": "Fixture Choice_list 1-84",
          "description": "conformance fixture record",
          "created_at": "2026-01-01T00:00:00Z",
          "updated_at": "2026-01-01T00:00:00Z"
        },
        {
          "id": "choice_list_fixture_p1_85",
          "name": "Fixture Choice_list 1-85",
          "description": "conformance fixture record",
          "created_at": "2026-01-01T00:00:00Z",
          "updated_at": "2026-01-01T00:00:00Z"
        },
        {
          "id": "choice_list_fixture_p1_86",
          "name": "Fixture Choice_list 1-86",
          "description": "conformance fixture record",
          "created_at": "2026-01-01T00:00:00Z",
          "updated_at": "2026-01-01T00:00:00Z"
        },
        {
          "id": "choice_list_fixture_p1_87",
          "name": "Fixture Choice_list 1-87",
          "description": "conformance fixture record",
          "created_at": "2026-01-01T00:00:00Z",
          "updated_at": "2026-01-01T00:00:00Z"
        },
        {
          "id": "choice_list_fixture_p1_88",
          "name": "Fixture Choice_list 1-88",
          "description": "conformance fixture record",
          "created_at": "2026-01-01T00:00:00Z",
          "updated_at": "2026-01-01T00:00:00Z"
        },
        {
          "id": "choice_list_fixture_p1_89",
          "name": "Fixture Choice_list 1-89",
          "description": "conformance fixture record",
          "created_at": "2026-01-01T00:00:00Z",
          "updated_at": "2026-01-01T00:00:00Z"
        },
        {
          "id": "choice_list_fixture_p1_90",
          "name": "Fixture Choice_list 1-90",
          "description": "conformance fixture record",
          "created_at": "2026-01-01T00:00:00Z",
          "updated_at": "2026-01-01T00:00:00Z"
        },
        {
          "id": "choice_list_fixture_p1_91",
          "name": "Fixture Choice_list 1-91",
          "description": "conformance fixture record",
          "created_at": "2026-01-01T00:00:00Z",
          "updated_at": "2026-01-01T00:00:00Z"
        },
        {
          "id": "choice_list_fixture_p1_92",
          "name": "Fixture Choice_list 1-92",
          "description": "conformance fixture record",
          "created_at": "2026-01-01T00:00:00Z",
          "updated_at": "2026-01-01T00:00:00Z"
        },
        {
          "id": "choice_list_fixture_p1_93",
          "name": "Fixture Choice_list 1-93",
          "description": "conformance fixture record",
          "created_at": "2026-01-01T00:00:00Z",
          "updated_at": "2026-01-01T00:00:00Z"
        },
        {
          "id": "choice_list_fixture_p1_94",
          "name": "Fixture Choice_list 1-94",
          "description": "conformance fixture record",
          "created_at": "2026-01-01T00:00:00Z",
          "updated_at": "2026-01-01T00:00:00Z"
        },
        {
          "id": "choice_list_fixture_p1_95",
          "name": "Fixture Choice_list 1-95",
          "description": "conformance fixture record",
          "created_at": "2026-01-01T00:00:00Z",
          "updated_at": "2026-01-01T00:00:00Z"
        },
        {
          "id": "choice_list_fixture_p1_96",
          "name": "Fixture Choice_list 1-96",
          "description": "conformance fixture record",
          "created_at": "2026-01-01T00:00:00Z",
          "updated_at": "2026-01-01T00:00:00Z"
        },
        {
          "id": "choice_list_fixture_p1_97",
          "name": "Fixture Choice_list 1-97",
          "description": "conformance fixture record",
          "created_at": "2026-01-01T00:00:00Z",
          "updated_at": "2026-01-01T00:00:00Z"
        },
        {
          "id": "choice_list_fixture_p1_98",
          "name": "Fixture Choice_list 1-98",
          "description": "conformance fixture record",
          "created_at": "2026-01-01T00:00:00Z",
          "updated_at": "2026-01-01T00:00:00Z"
        },
        {
          "id": "choice_list_fixture_p1_99",
          "name": "Fixture Choice_list 1-99",
          "description": "conformance fixture record",
          "created_at": "2026-01-01T00:00:00Z",
          "updated_at": "2026-01-01T00:00:00Z"
        },
        {
          "id": "choice_list_fixture_p1_100",
          "name": "Fixture Choice_list 1-100",
          "description": "conformance fixture record",
          "created_at": "2026-01-01T00:00:00Z",
          "updated_at": "2026-01-01T00:00:00Z"
        }
      ],
      "total_count": 101,
      "current_page": 1,
      "total_pages": 2,
      "per_page": 100
    }
  }
}
