{
  "request": {
    "method": "GET",
    "path": "/scraping-job/synthetic-conformance-value/problematic-urls",
    "query": {
      "page": "2"
    }
  },
  "response": {
    "status": 200,
    "body": {
      "success": true,
      "data": [
        {
          "url": "https://example.test/failed/101",
          "type": "failed"
        }
      ],
      "current_page": 2,
      "last_page": 2,
      "total": 101,
      "per_page": 100
    }
  }
}
