{
  "request": { "method": "GET", "path": "/employees", "query": { "page": "2" } },
  "response": {
    "status": 200,
    "body": {
      "data": [
        { "id": 3, "email": "fixture3@example.com", "first_name": "Fixture", "last_name": "Three", "employee_number": "A03", "employment_status": "Full-time", "team": "Fixture Team", "team_id": 1, "position": "Engineer", "position_id": 10 }
      ],
      "meta": { "current_page": 2, "next_page": null, "previous_page": 1, "total_pages": 2, "per_page": 2, "total_entries": 3 }
    }
  }
}
