{
  "request": {
    "method": "GET",
    "path": "/projects.json",
    "query": {
      "page": "2",
      "per_page": "100"
    }
  },
  "response": {
    "status": 200,
    "body": {
      "projects": [
        {
          "id": "project_fixture_p2_1",
          "name": "Fixture Project 2-1",
          "description": "conformance fixture record",
          "created_at": "2026-01-01T00:00:00Z",
          "updated_at": "2026-01-01T00:00:00Z"
        }
      ],
      "total_count": 101,
      "current_page": 2,
      "total_pages": 2,
      "per_page": 100
    }
  }
}
