{
  "request": { "method": "GET", "path": "/api/v1/features", "query": { "page": "2" } },
  "response": {
    "status": 200,
    "body": {
      "features": [
        {
          "id": "feature_fixture_31",
          "reference_num": "FIX-31",
          "name": "Fixture feature 31",
          "created_at": "2026-01-01T00:00:00Z",
          "updated_at": "2026-01-02T00:00:00Z",
          "start_date": "2026-01-01",
          "due_date": "2026-02-01",
          "workflow_status": { "id": "1", "name": "In progress" },
          "url": "https://secure.aha.io/features/31"
        }
      ],
      "pagination": { "total_records": 31, "total_pages": 2, "current_page": 2 }
    }
  }
}
