{
  "request": { "method": "GET", "path": "/positions", "query": { "page": "2" } },
  "response": {
    "status": 200,
    "body": {
      "data": [
        { "id": 103, "title": "Fixture Engineer", "description": "Builds things", "code": "X2" }
      ],
      "meta": { "current_page": 2, "next_page": null, "previous_page": 1, "total_pages": 2, "per_page": 2, "total_entries": 3 }
    }
  }
}
