{
  "request": {
    "method": "GET",
    "path": "/orders",
    "query": {
      "page": "1",
      "pageSize": "100"
    }
  },
  "response": {
    "status": 200,
    "body": {
      "orders": [
        {
          "orderId": 1,
          "orderNumber": "ORD-1",
          "orderStatus": "awaiting_shipment",
          "modifyDate": "2026-01-01T00:00:00.0000000"
        },
        {
          "orderId": 2,
          "orderNumber": "ORD-2",
          "orderStatus": "awaiting_shipment",
          "modifyDate": "2026-01-01T00:00:00.0000000"
        },
        {
          "orderId": 3,
          "orderNumber": "ORD-3",
          "orderStatus": "awaiting_shipment",
          "modifyDate": "2026-01-01T00:00:00.0000000"
        },
        {
          "orderId": 4,
          "orderNumber": "ORD-4",
          "orderStatus": "awaiting_shipment",
          "modifyDate": "2026-01-01T00:00:00.0000000"
        },
        {
          "orderId": 5,
          "orderNumber": "ORD-5",
          "orderStatus": "awaiting_shipment",
          "modifyDate": "2026-01-01T00:00:00.0000000"
        },
        {
          "orderId": 6,
          "orderNumber": "ORD-6",
          "orderStatus": "awaiting_shipment",
          "modifyDate": "2026-01-01T00:00:00.0000000"
        },
        {
          "orderId": 7,
          "orderNumber": "ORD-7",
          "orderStatus": "awaiting_shipment",
          "modifyDate": "2026-01-01T00:00:00.0000000"
        },
        {
          "orderId": 8,
          "orderNumber": "ORD-8",
          "orderStatus": "awaiting_shipment",
          "modifyDate": "2026-01-01T00:00:00.0000000"
        },
        {
          "orderId": 9,
          "orderNumber": "ORD-9",
          "orderStatus": "awaiting_shipment",
          "modifyDate": "2026-01-01T00:00:00.0000000"
        },
        {
          "orderId": 10,
          "orderNumber": "ORD-10",
          "orderStatus": "awaiting_shipment",
          "modifyDate": "2026-01-01T00:00:00.0000000"
        },
        {
          "orderId": 11,
          "orderNumber": "ORD-11",
          "orderStatus": "awaiting_shipment",
          "modifyDate": "2026-01-01T00:00:00.0000000"
        },
        {
          "orderId": 12,
          "orderNumber": "ORD-12",
          "orderStatus": "awaiting_shipment",
          "modifyDate": "2026-01-01T00:00:00.0000000"
        },
        {
          "orderId": 13,
          "orderNumber": "ORD-13",
          "orderStatus": "awaiting_shipment",
          "modifyDate": "2026-01-01T00:00:00.0000000"
        },
        {
          "orderId": 14,
          "orderNumber": "ORD-14",
          "orderStatus": "awaiting_shipment",
          "modifyDate": "2026-01-01T00:00:00.0000000"
        },
        {
          "orderId": 15,
          "orderNumber": "ORD-15",
          "orderStatus": "awaiting_shipment",
          "modifyDate": "2026-01-01T00:00:00.0000000"
        },
        {
          "orderId": 16,
          "orderNumber": "ORD-16",
          "orderStatus": "awaiting_shipment",
          "modifyDate": "2026-01-01T00:00:00.0000000"
        },
        {
          "orderId": 17,
          "orderNumber": "ORD-17",
          "orderStatus": "awaiting_shipment",
          "modifyDate": "2026-01-01T00:00:00.0000000"
        },
        {
          "orderId": 18,
          "orderNumber": "ORD-18",
          "orderStatus": "awaiting_shipment",
          "modifyDate": "2026-01-01T00:00:00.0000000"
        },
        {
          "orderId": 19,
          "orderNumber": "ORD-19",
          "orderStatus": "awaiting_shipment",
          "modifyDate": "2026-01-01T00:00:00.0000000"
        },
        {
          "orderId": 20,
          "orderNumber": "ORD-20",
          "orderStatus": "awaiting_shipment",
          "modifyDate": "2026-01-01T00:00:00.0000000"
        },
        {
          "orderId": 21,
          "orderNumber": "ORD-21",
          "orderStatus": "awaiting_shipment",
          "modifyDate": "2026-01-01T00:00:00.0000000"
        },
        {
          "orderId": 22,
          "orderNumber": "ORD-22",
          "orderStatus": "awaiting_shipment",
          "modifyDate": "2026-01-01T00:00:00.0000000"
        },
        {
          "orderId": 23,
          "orderNumber": "ORD-23",
          "orderStatus": "awaiting_shipment",
          "modifyDate": "2026-01-01T00:00:00.0000000"
        },
        {
          "orderId": 24,
          "orderNumber": "ORD-24",
          "orderStatus": "awaiting_shipment",
          "modifyDate": "2026-01-01T00:00:00.0000000"
        },
        {
          "orderId": 25,
          "orderNumber": "ORD-25",
          "orderStatus": "awaiting_shipment",
          "modifyDate": "2026-01-01T00:00:00.0000000"
        },
        {
          "orderId": 26,
          "orderNumber": "ORD-26",
          "orderStatus": "awaiting_shipment",
          "modifyDate": "2026-01-01T00:00:00.0000000"
        },
        {
          "orderId": 27,
          "orderNumber": "ORD-27",
          "orderStatus": "awaiting_shipment",
          "modifyDate": "2026-01-01T00:00:00.0000000"
        },
        {
          "orderId": 28,
          "orderNumber": "ORD-28",
          "orderStatus": "awaiting_shipment",
          "modifyDate": "2026-01-01T00:00:00.0000000"
        },
        {
          "orderId": 29,
          "orderNumber": "ORD-29",
          "orderStatus": "awaiting_shipment",
          "modifyDate": "2026-01-01T00:00:00.0000000"
        },
        {
          "orderId": 30,
          "orderNumber": "ORD-30",
          "orderStatus": "awaiting_shipment",
          "modifyDate": "2026-01-01T00:00:00.0000000"
        },
        {
          "orderId": 31,
          "orderNumber": "ORD-31",
          "orderStatus": "awaiting_shipment",
          "modifyDate": "2026-01-01T00:00:00.0000000"
        },
        {
          "orderId": 32,
          "orderNumber": "ORD-32",
          "orderStatus": "awaiting_shipment",
          "modifyDate": "2026-01-01T00:00:00.0000000"
        },
        {
          "orderId": 33,
          "orderNumber": "ORD-33",
          "orderStatus": "awaiting_shipment",
          "modifyDate": "2026-01-01T00:00:00.0000000"
        },
        {
          "orderId": 34,
          "orderNumber": "ORD-34",
          "orderStatus": "awaiting_shipment",
          "modifyDate": "2026-01-01T00:00:00.0000000"
        },
        {
          "orderId": 35,
          "orderNumber": "ORD-35",
          "orderStatus": "awaiting_shipment",
          "modifyDate": "2026-01-01T00:00:00.0000000"
        },
        {
          "orderId": 36,
          "orderNumber": "ORD-36",
          "orderStatus": "awaiting_shipment",
          "modifyDate": "2026-01-01T00:00:00.0000000"
        },
        {
          "orderId": 37,
          "orderNumber": "ORD-37",
          "orderStatus": "awaiting_shipment",
          "modifyDate": "2026-01-01T00:00:00.0000000"
        },
        {
          "orderId": 38,
          "orderNumber": "ORD-38",
          "orderStatus": "awaiting_shipment",
          "modifyDate": "2026-01-01T00:00:00.0000000"
        },
        {
          "orderId": 39,
          "orderNumber": "ORD-39",
          "orderStatus": "awaiting_shipment",
          "modifyDate": "2026-01-01T00:00:00.0000000"
        },
        {
          "orderId": 40,
          "orderNumber": "ORD-40",
          "orderStatus": "awaiting_shipment",
          "modifyDate": "2026-01-01T00:00:00.0000000"
        },
        {
          "orderId": 41,
          "orderNumber": "ORD-41",
          "orderStatus": "awaiting_shipment",
          "modifyDate": "2026-01-01T00:00:00.0000000"
        },
        {
          "orderId": 42,
          "orderNumber": "ORD-42",
          "orderStatus": "awaiting_shipment",
          "modifyDate": "2026-01-01T00:00:00.0000000"
        },
        {
          "orderId": 43,
          "orderNumber": "ORD-43",
          "orderStatus": "awaiting_shipment",
          "modifyDate": "2026-01-01T00:00:00.0000000"
        },
        {
          "orderId": 44,
          "orderNumber": "ORD-44",
          "orderStatus": "awaiting_shipment",
          "modifyDate": "2026-01-01T00:00:00.0000000"
        },
        {
          "orderId": 45,
          "orderNumber": "ORD-45",
          "orderStatus": "awaiting_shipment",
          "modifyDate": "2026-01-01T00:00:00.0000000"
        },
        {
          "orderId": 46,
          "orderNumber": "ORD-46",
          "orderStatus": "awaiting_shipment",
          "modifyDate": "2026-01-01T00:00:00.0000000"
        },
        {
          "orderId": 47,
          "orderNumber": "ORD-47",
          "orderStatus": "awaiting_shipment",
          "modifyDate": "2026-01-01T00:00:00.0000000"
        },
        {
          "orderId": 48,
          "orderNumber": "ORD-48",
          "orderStatus": "awaiting_shipment",
          "modifyDate": "2026-01-01T00:00:00.0000000"
        },
        {
          "orderId": 49,
          "orderNumber": "ORD-49",
          "orderStatus": "awaiting_shipment",
          "modifyDate": "2026-01-01T00:00:00.0000000"
        },
        {
          "orderId": 50,
          "orderNumber": "ORD-50",
          "orderStatus": "awaiting_shipment",
          "modifyDate": "2026-01-01T00:00:00.0000000"
        },
        {
          "orderId": 51,
          "orderNumber": "ORD-51",
          "orderStatus": "awaiting_shipment",
          "modifyDate": "2026-01-01T00:00:00.0000000"
        },
        {
          "orderId": 52,
          "orderNumber": "ORD-52",
          "orderStatus": "awaiting_shipment",
          "modifyDate": "2026-01-01T00:00:00.0000000"
        },
        {
          "orderId": 53,
          "orderNumber": "ORD-53",
          "orderStatus": "awaiting_shipment",
          "modifyDate": "2026-01-01T00:00:00.0000000"
        },
        {
          "orderId": 54,
          "orderNumber": "ORD-54",
          "orderStatus": "awaiting_shipment",
          "modifyDate": "2026-01-01T00:00:00.0000000"
        },
        {
          "orderId": 55,
          "orderNumber": "ORD-55",
          "orderStatus": "awaiting_shipment",
          "modifyDate": "2026-01-01T00:00:00.0000000"
        },
        {
          "orderId": 56,
          "orderNumber": "ORD-56",
          "orderStatus": "awaiting_shipment",
          "modifyDate": "2026-01-01T00:00:00.0000000"
        },
        {
          "orderId": 57,
          "orderNumber": "ORD-57",
          "orderStatus": "awaiting_shipment",
          "modifyDate": "2026-01-01T00:00:00.0000000"
        },
        {
          "orderId": 58,
          "orderNumber": "ORD-58",
          "orderStatus": "awaiting_shipment",
          "modifyDate": "2026-01-01T00:00:00.0000000"
        },
        {
          "orderId": 59,
          "orderNumber": "ORD-59",
          "orderStatus": "awaiting_shipment",
          "modifyDate": "2026-01-01T00:00:00.0000000"
        },
        {
          "orderId": 60,
          "orderNumber": "ORD-60",
          "orderStatus": "awaiting_shipment",
          "modifyDate": "2026-01-01T00:00:00.0000000"
        },
        {
          "orderId": 61,
          "orderNumber": "ORD-61",
          "orderStatus": "awaiting_shipment",
          "modifyDate": "2026-01-01T00:00:00.0000000"
        },
        {
          "orderId": 62,
          "orderNumber": "ORD-62",
          "orderStatus": "awaiting_shipment",
          "modifyDate": "2026-01-01T00:00:00.0000000"
        },
        {
          "orderId": 63,
          "orderNumber": "ORD-63",
          "orderStatus": "awaiting_shipment",
          "modifyDate": "2026-01-01T00:00:00.0000000"
        },
        {
          "orderId": 64,
          "orderNumber": "ORD-64",
          "orderStatus": "awaiting_shipment",
          "modifyDate": "2026-01-01T00:00:00.0000000"
        },
        {
          "orderId": 65,
          "orderNumber": "ORD-65",
          "orderStatus": "awaiting_shipment",
          "modifyDate": "2026-01-01T00:00:00.0000000"
        },
        {
          "orderId": 66,
          "orderNumber": "ORD-66",
          "orderStatus": "awaiting_shipment",
          "modifyDate": "2026-01-01T00:00:00.0000000"
        },
        {
          "orderId": 67,
          "orderNumber": "ORD-67",
          "orderStatus": "awaiting_shipment",
          "modifyDate": "2026-01-01T00:00:00.0000000"
        },
        {
          "orderId": 68,
          "orderNumber": "ORD-68",
          "orderStatus": "awaiting_shipment",
          "modifyDate": "2026-01-01T00:00:00.0000000"
        },
        {
          "orderId": 69,
          "orderNumber": "ORD-69",
          "orderStatus": "awaiting_shipment",
          "modifyDate": "2026-01-01T00:00:00.0000000"
        },
        {
          "orderId": 70,
          "orderNumber": "ORD-70",
          "orderStatus": "awaiting_shipment",
          "modifyDate": "2026-01-01T00:00:00.0000000"
        },
        {
          "orderId": 71,
          "orderNumber": "ORD-71",
          "orderStatus": "awaiting_shipment",
          "modifyDate": "2026-01-01T00:00:00.0000000"
        },
        {
          "orderId": 72,
          "orderNumber": "ORD-72",
          "orderStatus": "awaiting_shipment",
          "modifyDate": "2026-01-01T00:00:00.0000000"
        },
        {
          "orderId": 73,
          "orderNumber": "ORD-73",
          "orderStatus": "awaiting_shipment",
          "modifyDate": "2026-01-01T00:00:00.0000000"
        },
        {
          "orderId": 74,
          "orderNumber": "ORD-74",
          "orderStatus": "awaiting_shipment",
          "modifyDate": "2026-01-01T00:00:00.0000000"
        },
        {
          "orderId": 75,
          "orderNumber": "ORD-75",
          "orderStatus": "awaiting_shipment",
          "modifyDate": "2026-01-01T00:00:00.0000000"
        },
        {
          "orderId": 76,
          "orderNumber": "ORD-76",
          "orderStatus": "awaiting_shipment",
          "modifyDate": "2026-01-01T00:00:00.0000000"
        },
        {
          "orderId": 77,
          "orderNumber": "ORD-77",
          "orderStatus": "awaiting_shipment",
          "modifyDate": "2026-01-01T00:00:00.0000000"
        },
        {
          "orderId": 78,
          "orderNumber": "ORD-78",
          "orderStatus": "awaiting_shipment",
          "modifyDate": "2026-01-01T00:00:00.0000000"
        },
        {
          "orderId": 79,
          "orderNumber": "ORD-79",
          "orderStatus": "awaiting_shipment",
          "modifyDate": "2026-01-01T00:00:00.0000000"
        },
        {
          "orderId": 80,
          "orderNumber": "ORD-80",
          "orderStatus": "awaiting_shipment",
          "modifyDate": "2026-01-01T00:00:00.0000000"
        },
        {
          "orderId": 81,
          "orderNumber": "ORD-81",
          "orderStatus": "awaiting_shipment",
          "modifyDate": "2026-01-01T00:00:00.0000000"
        },
        {
          "orderId": 82,
          "orderNumber": "ORD-82",
          "orderStatus": "awaiting_shipment",
          "modifyDate": "2026-01-01T00:00:00.0000000"
        },
        {
          "orderId": 83,
          "orderNumber": "ORD-83",
          "orderStatus": "awaiting_shipment",
          "modifyDate": "2026-01-01T00:00:00.0000000"
        },
        {
          "orderId": 84,
          "orderNumber": "ORD-84",
          "orderStatus": "awaiting_shipment",
          "modifyDate": "2026-01-01T00:00:00.0000000"
        },
        {
          "orderId": 85,
          "orderNumber": "ORD-85",
          "orderStatus": "awaiting_shipment",
          "modifyDate": "2026-01-01T00:00:00.0000000"
        },
        {
          "orderId": 86,
          "orderNumber": "ORD-86",
          "orderStatus": "awaiting_shipment",
          "modifyDate": "2026-01-01T00:00:00.0000000"
        },
        {
          "orderId": 87,
          "orderNumber": "ORD-87",
          "orderStatus": "awaiting_shipment",
          "modifyDate": "2026-01-01T00:00:00.0000000"
        },
        {
          "orderId": 88,
          "orderNumber": "ORD-88",
          "orderStatus": "awaiting_shipment",
          "modifyDate": "2026-01-01T00:00:00.0000000"
        },
        {
          "orderId": 89,
          "orderNumber": "ORD-89",
          "orderStatus": "awaiting_shipment",
          "modifyDate": "2026-01-01T00:00:00.0000000"
        },
        {
          "orderId": 90,
          "orderNumber": "ORD-90",
          "orderStatus": "awaiting_shipment",
          "modifyDate": "2026-01-01T00:00:00.0000000"
        },
        {
          "orderId": 91,
          "orderNumber": "ORD-91",
          "orderStatus": "awaiting_shipment",
          "modifyDate": "2026-01-01T00:00:00.0000000"
        },
        {
          "orderId": 92,
          "orderNumber": "ORD-92",
          "orderStatus": "awaiting_shipment",
          "modifyDate": "2026-01-01T00:00:00.0000000"
        },
        {
          "orderId": 93,
          "orderNumber": "ORD-93",
          "orderStatus": "awaiting_shipment",
          "modifyDate": "2026-01-01T00:00:00.0000000"
        },
        {
          "orderId": 94,
          "orderNumber": "ORD-94",
          "orderStatus": "awaiting_shipment",
          "modifyDate": "2026-01-01T00:00:00.0000000"
        },
        {
          "orderId": 95,
          "orderNumber": "ORD-95",
          "orderStatus": "awaiting_shipment",
          "modifyDate": "2026-01-01T00:00:00.0000000"
        },
        {
          "orderId": 96,
          "orderNumber": "ORD-96",
          "orderStatus": "awaiting_shipment",
          "modifyDate": "2026-01-01T00:00:00.0000000"
        },
        {
          "orderId": 97,
          "orderNumber": "ORD-97",
          "orderStatus": "awaiting_shipment",
          "modifyDate": "2026-01-01T00:00:00.0000000"
        },
        {
          "orderId": 98,
          "orderNumber": "ORD-98",
          "orderStatus": "awaiting_shipment",
          "modifyDate": "2026-01-01T00:00:00.0000000"
        },
        {
          "orderId": 99,
          "orderNumber": "ORD-99",
          "orderStatus": "awaiting_shipment",
          "modifyDate": "2026-01-01T00:00:00.0000000"
        },
        {
          "orderId": 100,
          "orderNumber": "ORD-100",
          "orderStatus": "awaiting_shipment",
          "modifyDate": "2026-01-01T00:00:00.0000000"
        }
      ],
      "total": 101,
      "page": 1,
      "pages": 2
    }
  }
}
