{
  "request": {
    "method": "GET",
    "path": "/accounting/account/synthetic-conformance-value/users/clients",
    "query": { "page": "2", "per_page": "100" }
  },
  "response": {
    "status": 200,
    "body": {
      "response": {
        "result": {
          "clients": [
            { "id": 101, "userid": 1, "organization": "Fixture Org 101", "fname": "Fixture", "lname": "Client 101", "email": "fixture101@example.com", "currency_code": "USD", "vis_state": 0, "updated": "2026-01-04 00:00:00" }
          ],
          "page": 2,
          "pages": 2,
          "per_page": 100,
          "total": 101
        }
      }
    }
  }
}
