{
  "request": {
    "method": "GET",
    "path": "/forms.json",
    "query": {
      "page": "2",
      "per_page": "100"
    }
  },
  "response": {
    "status": 200,
    "body": {
      "forms": [
        {
          "id": "form_fixture_p2_1",
          "name": "Fixture Form 2-1",
          "description": "conformance fixture form",
          "status": "active",
          "record_count": 1,
          "created_at": "2026-01-01T00:00:00Z",
          "updated_at": "2026-01-01T00:00:00Z",
          "auto_assign": true
        }
      ],
      "total_count": 101,
      "current_page": 2,
      "total_pages": 2,
      "per_page": 100
    }
  }
}
